^C:\USERS\JFELT\DOCUMENTS\CRYENGINE PROJECTS\HEALTHSYSTEM\CODE\CMAKELISTS.TXT
C:\PROGRAM FILES (X86)\CRYTEK\CRYENGINE LAUNCHER\CRYTEK\CRYENGINE_5.6\TOOLS\CMAKE\BOOTSTRAP.CMAKE
C:\PROGRAM FILES (X86)\CRYTEK\CRYENGINE LAUNCHER\CRYTEK\CRYENGINE_5.6\TOOLS\CMAKE\BUILD.CMAKE
C:\PROGRAM FILES (X86)\CRYTEK\CRYENGINE LAUNCHER\CRYTEK\CRYENGINE_5.6\TOOLS\CMAKE\CRYENGINE-MSVC.CMAKE
C:\PROGRAM FILES (X86)\CRYTEK\CRYENGINE LAUNCHER\CRYTEK\CRYENGINE_5.6\TOOLS\CMAKE\COMMONMACROS.CMAKE
C:\PROGRAM FILES (X86)\CRYTEK\CRYENGINE LAUNCHER\CRYTEK\CRYENGINE_5.6\TOOLS\CMAKE\COMMONOPTIONS.CMAKE
C:\PROGRAM FILES (X86)\CRYTEK\CRYENGINE LAUNCHER\CRYTEK\CRYENGINE_5.6\TOOLS\CMAKE\CONFIGURE.CMAKE
C:\PROGRAM FILES (X86)\CRYTEK\CRYENGINE LAUNCHER\CRYTEK\CRYENGINE_5.6\TOOLS\CMAKE\CONFIGURECHECKS.CMAKE
C:\PROGRAM FILES (X86)\CRYTEK\CRYENGINE LAUNCHER\CRYTEK\CRYENGINE_5.6\TOOLS\CMAKE\COPYFILESTOBIN.CMAKE
C:\PROGRAM FILES (X86)\CRYTEK\CRYENGINE LAUNCHER\CRYTEK\CRYENGINE_5.6\TOOLS\CMAKE\INITIALSETUP.CMAKE
C:\PROGRAM FILES (X86)\CRYTEK\CRYENGINE LAUNCHER\CRYTEK\CRYENGINE_5.6\TOOLS\CMAKE\RECODE.CMAKE
C:\PROGRAM FILES (X86)\CRYTEK\CRYENGINE LAUNCHER\CRYTEK\CRYENGINE_5.6\TOOLS\CMAKE\WIN32\SHARE\CMAKE-3.14\MODULES\CMAKECCOMPILER.CMAKE.IN
C:\PROGRAM FILES (X86)\CRYTEK\CRYENGINE LAUNCHER\CRYTEK\CRYENGINE_5.6\TOOLS\CMAKE\WIN32\SHARE\CMAKE-3.14\MODULES\CMAKECCOMPILERABI.C
C:\PROGRAM FILES (X86)\CRYTEK\CRYENGINE LAUNCHER\CRYTEK\CRYENGINE_5.6\TOOLS\CMAKE\WIN32\SHARE\CMAKE-3.14\MODULES\CMAKECINFORMATION.CMAKE
C:\PROGRAM FILES (X86)\CRYTEK\CRYENGINE LAUNCHER\CRYTEK\CRYENGINE_5.6\TOOLS\CMAKE\WIN32\SHARE\CMAKE-3.14\MODULES\CMAKECXXCOMPILER.CMAKE.IN
C:\PROGRAM FILES (X86)\CRYTEK\CRYENGINE LAUNCHER\CRYTEK\CRYENGINE_5.6\TOOLS\CMAKE\WIN32\SHARE\CMAKE-3.14\MODULES\CMAKECXXCOMPILERABI.CPP
C:\PROGRAM FILES (X86)\CRYTEK\CRYENGINE LAUNCHER\CRYTEK\CRYENGINE_5.6\TOOLS\CMAKE\WIN32\SHARE\CMAKE-3.14\MODULES\CMAKECXXINFORMATION.CMAKE
C:\PROGRAM FILES (X86)\CRYTEK\CRYENGINE LAUNCHER\CRYTEK\CRYENGINE_5.6\TOOLS\CMAKE\WIN32\SHARE\CMAKE-3.14\MODULES\CMAKECOMMONLANGUAGEINCLUDE.CMAKE
C:\PROGRAM FILES (X86)\CRYTEK\CRYENGINE LAUNCHER\CRYTEK\CRYENGINE_5.6\TOOLS\CMAKE\WIN32\SHARE\CMAKE-3.14\MODULES\CMAKECOMPILERIDDETECTION.CMAKE
C:\PROGRAM FILES (X86)\CRYTEK\CRYENGINE LAUNCHER\CRYTEK\CRYENGINE_5.6\TOOLS\CMAKE\WIN32\SHARE\CMAKE-3.14\MODULES\CMAKEDEPENDENTOPTION.CMAKE
C:\PROGRAM FILES (X86)\CRYTEK\CRYENGINE LAUNCHER\CRYTEK\CRYENGINE_5.6\TOOLS\CMAKE\WIN32\SHARE\CMAKE-3.14\MODULES\CMAKEDETERMINECCOMPILER.CMAKE
C:\PROGRAM FILES (X86)\CRYTEK\CRYENGINE LAUNCHER\CRYTEK\CRYENGINE_5.6\TOOLS\CMAKE\WIN32\SHARE\CMAKE-3.14\MODULES\CMAKEDETERMINECXXCOMPILER.CMAKE
C:\PROGRAM FILES (X86)\CRYTEK\CRYENGINE LAUNCHER\CRYTEK\CRYENGINE_5.6\TOOLS\CMAKE\WIN32\SHARE\CMAKE-3.14\MODULES\CMAKEDETERMINECOMPILEFEATURES.CMAKE
C:\PROGRAM FILES (X86)\CRYTEK\CRYENGINE LAUNCHER\CRYTEK\CRYENGINE_5.6\TOOLS\CMAKE\WIN32\SHARE\CMAKE-3.14\MODULES\CMAKEDETERMINECOMPILER.CMAKE
C:\PROGRAM FILES (X86)\CRYTEK\CRYENGINE LAUNCHER\CRYTEK\CRYENGINE_5.6\TOOLS\CMAKE\WIN32\SHARE\CMAKE-3.14\MODULES\CMAKEDETERMINECOMPILERABI.CMAKE
C:\PROGRAM FILES (X86)\CRYTEK\CRYENGINE LAUNCHER\CRYTEK\CRYENGINE_5.6\TOOLS\CMAKE\WIN32\SHARE\CMAKE-3.14\MODULES\CMAKEDETERMINECOMPILERID.CMAKE
C:\PROGRAM FILES (X86)\CRYTEK\CRYENGINE LAUNCHER\CRYTEK\CRYENGINE_5.6\TOOLS\CMAKE\WIN32\SHARE\CMAKE-3.14\MODULES\CMAKEDETERMINERCCOMPILER.CMAKE
C:\PROGRAM FILES (X86)\CRYTEK\CRYENGINE LAUNCHER\CRYTEK\CRYENGINE_5.6\TOOLS\CMAKE\WIN32\SHARE\CMAKE-3.14\MODULES\CMAKEDETERMINESYSTEM.CMAKE
C:\PROGRAM FILES (X86)\CRYTEK\CRYENGINE LAUNCHER\CRYTEK\CRYENGINE_5.6\TOOLS\CMAKE\WIN32\SHARE\CMAKE-3.14\MODULES\CMAKEFINDBINUTILS.CMAKE
C:\PROGRAM FILES (X86)\CRYTEK\CRYENGINE LAUNCHER\CRYTEK\CRYENGINE_5.6\TOOLS\CMAKE\WIN32\SHARE\CMAKE-3.14\MODULES\CMAKEGENERICSYSTEM.CMAKE
C:\PROGRAM FILES (X86)\CRYTEK\CRYENGINE LAUNCHER\CRYTEK\CRYENGINE_5.6\TOOLS\CMAKE\WIN32\SHARE\CMAKE-3.14\MODULES\CMAKEINITIALIZECONFIGS.CMAKE
C:\PROGRAM FILES (X86)\CRYTEK\CRYENGINE LAUNCHER\CRYTEK\CRYENGINE_5.6\TOOLS\CMAKE\WIN32\SHARE\CMAKE-3.14\MODULES\CMAKELANGUAGEINFORMATION.CMAKE
C:\PROGRAM FILES (X86)\CRYTEK\CRYENGINE LAUNCHER\CRYTEK\CRYENGINE_5.6\TOOLS\CMAKE\WIN32\SHARE\CMAKE-3.14\MODULES\CMAKEPARSEIMPLICITINCLUDEINFO.CMAKE
C:\PROGRAM FILES (X86)\CRYTEK\CRYENGINE LAUNCHER\CRYTEK\CRYENGINE_5.6\TOOLS\CMAKE\WIN32\SHARE\CMAKE-3.14\MODULES\CMAKEPARSEIMPLICITLINKINFO.CMAKE
C:\PROGRAM FILES (X86)\CRYTEK\CRYENGINE LAUNCHER\CRYTEK\CRYENGINE_5.6\TOOLS\CMAKE\WIN32\SHARE\CMAKE-3.14\MODULES\CMAKERCCOMPILER.CMAKE.IN
C:\PROGRAM FILES (X86)\CRYTEK\CRYENGINE LAUNCHER\CRYTEK\CRYENGINE_5.6\TOOLS\CMAKE\WIN32\SHARE\CMAKE-3.14\MODULES\CMAKERCINFORMATION.CMAKE
C:\PROGRAM FILES (X86)\CRYTEK\CRYENGINE LAUNCHER\CRYTEK\CRYENGINE_5.6\TOOLS\CMAKE\WIN32\SHARE\CMAKE-3.14\MODULES\CMAKESYSTEM.CMAKE.IN
C:\PROGRAM FILES (X86)\CRYTEK\CRYENGINE LAUNCHER\CRYTEK\CRYENGINE_5.6\TOOLS\CMAKE\WIN32\SHARE\CMAKE-3.14\MODULES\CMAKESYSTEMSPECIFICINFORMATION.CMAKE
C:\PROGRAM FILES (X86)\CRYTEK\CRYENGINE LAUNCHER\CRYTEK\CRYENGINE_5.6\TOOLS\CMAKE\WIN32\SHARE\CMAKE-3.14\MODULES\CMAKESYSTEMSPECIFICINITIALIZE.CMAKE
C:\PROGRAM FILES (X86)\CRYTEK\CRYENGINE LAUNCHER\CRYTEK\CRYENGINE_5.6\TOOLS\CMAKE\WIN32\SHARE\CMAKE-3.14\MODULES\CMAKETESTCCOMPILER.CMAKE
C:\PROGRAM FILES (X86)\CRYTEK\CRYENGINE LAUNCHER\CRYTEK\CRYENGINE_5.6\TOOLS\CMAKE\WIN32\SHARE\CMAKE-3.14\MODULES\CMAKETESTCXXCOMPILER.CMAKE
C:\PROGRAM FILES (X86)\CRYTEK\CRYENGINE LAUNCHER\CRYTEK\CRYENGINE_5.6\TOOLS\CMAKE\WIN32\SHARE\CMAKE-3.14\MODULES\CMAKETESTCOMPILERCOMMON.CMAKE
C:\PROGRAM FILES (X86)\CRYTEK\CRYENGINE LAUNCHER\CRYTEK\CRYENGINE_5.6\TOOLS\CMAKE\WIN32\SHARE\CMAKE-3.14\MODULES\CMAKETESTRCCOMPILER.CMAKE
C:\PROGRAM FILES (X86)\CRYTEK\CRYENGINE LAUNCHER\CRYTEK\CRYENGINE_5.6\TOOLS\CMAKE\WIN32\SHARE\CMAKE-3.14\MODULES\CHECKFUNCTIONEXISTS.CMAKE
C:\PROGRAM FILES (X86)\CRYTEK\CRYENGINE LAUNCHER\CRYTEK\CRYENGINE_5.6\TOOLS\CMAKE\WIN32\SHARE\CMAKE-3.14\MODULES\COMPILER\ADSP-DETERMINECOMPILER.CMAKE
C:\PROGRAM FILES (X86)\CRYTEK\CRYENGINE LAUNCHER\CRYTEK\CRYENGINE_5.6\TOOLS\CMAKE\WIN32\SHARE\CMAKE-3.14\MODULES\COMPILER\ARMCC-DETERMINECOMPILER.CMAKE
C:\PROGRAM FILES (X86)\CRYTEK\CRYENGINE LAUNCHER\CRYTEK\CRYENGINE_5.6\TOOLS\CMAKE\WIN32\SHARE\CMAKE-3.14\MODULES\COMPILER\APPLECLANG-DETERMINECOMPILER.CMAKE
C:\PROGRAM FILES (X86)\CRYTEK\CRYENGINE LAUNCHER\CRYTEK\CRYENGINE_5.6\TOOLS\CMAKE\WIN32\SHARE\CMAKE-3.14\MODULES\COMPILER\BORLAND-DETERMINECOMPILER.CMAKE
C:\PROGRAM FILES (X86)\CRYTEK\CRYENGINE LAUNCHER\CRYTEK\CRYENGINE_5.6\TOOLS\CMAKE\WIN32\SHARE\CMAKE-3.14\MODULES\COMPILER\BRUCE-C-DETERMINECOMPILER.CMAKE
C:\PROGRAM FILES (X86)\CRYTEK\CRYENGINE LAUNCHER\CRYTEK\CRYENGINE_5.6\TOOLS\CMAKE\WIN32\SHARE\CMAKE-3.14\MODULES\COMPILER\CMAKECOMMONCOMPILERMACROS.CMAKE
C:\PROGRAM FILES (X86)\CRYTEK\CRYENGINE LAUNCHER\CRYTEK\CRYENGINE_5.6\TOOLS\CMAKE\WIN32\SHARE\CMAKE-3.14\MODULES\COMPILER\CLANG-DETERMINECOMPILER.CMAKE
C:\PROGRAM FILES (X86)\CRYTEK\CRYENGINE LAUNCHER\CRYTEK\CRYENGINE_5.6\TOOLS\CMAKE\WIN32\SHARE\CMAKE-3.14\MODULES\COMPILER\CLANG-DETERMINECOMPILERINTERNAL.CMAKE
C:\PROGRAM FILES (X86)\CRYTEK\CRYENGINE LAUNCHER\CRYTEK\CRYENGINE_5.6\TOOLS\CMAKE\WIN32\SHARE\CMAKE-3.14\MODULES\COMPILER\COMEAU-CXX-DETERMINECOMPILER.CMAKE
C:\PROGRAM FILES (X86)\CRYTEK\CRYENGINE LAUNCHER\CRYTEK\CRYENGINE_5.6\TOOLS\CMAKE\WIN32\SHARE\CMAKE-3.14\MODULES\COMPILER\COMPAQ-C-DETERMINECOMPILER.CMAKE
C:\PROGRAM FILES (X86)\CRYTEK\CRYENGINE LAUNCHER\CRYTEK\CRYENGINE_5.6\TOOLS\CMAKE\WIN32\SHARE\CMAKE-3.14\MODULES\COMPILER\COMPAQ-CXX-DETERMINECOMPILER.CMAKE
C:\PROGRAM FILES (X86)\CRYTEK\CRYENGINE LAUNCHER\CRYTEK\CRYENGINE_5.6\TOOLS\CMAKE\WIN32\SHARE\CMAKE-3.14\MODULES\COMPILER\CRAY-DETERMINECOMPILER.CMAKE
C:\PROGRAM FILES (X86)\CRYTEK\CRYENGINE LAUNCHER\CRYTEK\CRYENGINE_5.6\TOOLS\CMAKE\WIN32\SHARE\CMAKE-3.14\MODULES\COMPILER\EMBARCADERO-DETERMINECOMPILER.CMAKE
C:\PROGRAM FILES (X86)\CRYTEK\CRYENGINE LAUNCHER\CRYTEK\CRYENGINE_5.6\TOOLS\CMAKE\WIN32\SHARE\CMAKE-3.14\MODULES\COMPILER\FUJITSU-DETERMINECOMPILER.CMAKE
C:\PROGRAM FILES (X86)\CRYTEK\CRYENGINE LAUNCHER\CRYTEK\CRYENGINE_5.6\TOOLS\CMAKE\WIN32\SHARE\CMAKE-3.14\MODULES\COMPILER\GHS-DETERMINECOMPILER.CMAKE
C:\PROGRAM FILES (X86)\CRYTEK\CRYENGINE LAUNCHER\CRYTEK\CRYENGINE_5.6\TOOLS\CMAKE\WIN32\SHARE\CMAKE-3.14\MODULES\COMPILER\GNU-C-DETERMINECOMPILER.CMAKE
C:\PROGRAM FILES (X86)\CRYTEK\CRYENGINE LAUNCHER\CRYTEK\CRYENGINE_5.6\TOOLS\CMAKE\WIN32\SHARE\CMAKE-3.14\MODULES\COMPILER\GNU-CXX-DETERMINECOMPILER.CMAKE
C:\PROGRAM FILES (X86)\CRYTEK\CRYENGINE LAUNCHER\CRYTEK\CRYENGINE_5.6\TOOLS\CMAKE\WIN32\SHARE\CMAKE-3.14\MODULES\COMPILER\HP-C-DETERMINECOMPILER.CMAKE
C:\PROGRAM FILES (X86)\CRYTEK\CRYENGINE LAUNCHER\CRYTEK\CRYENGINE_5.6\TOOLS\CMAKE\WIN32\SHARE\CMAKE-3.14\MODULES\COMPILER\HP-CXX-DETERMINECOMPILER.CMAKE
C:\PROGRAM FILES (X86)\CRYTEK\CRYENGINE LAUNCHER\CRYTEK\CRYENGINE_5.6\TOOLS\CMAKE\WIN32\SHARE\CMAKE-3.14\MODULES\COMPILER\IAR-DETERMINECOMPILER.CMAKE
C:\PROGRAM FILES (X86)\CRYTEK\CRYENGINE LAUNCHER\CRYTEK\CRYENGINE_5.6\TOOLS\CMAKE\WIN32\SHARE\CMAKE-3.14\MODULES\COMPILER\IBMCPP-C-DETERMINEVERSIONINTERNAL.CMAKE
C:\PROGRAM FILES (X86)\CRYTEK\CRYENGINE LAUNCHER\CRYTEK\CRYENGINE_5.6\TOOLS\CMAKE\WIN32\SHARE\CMAKE-3.14\MODULES\COMPILER\IBMCPP-CXX-DETERMINEVERSIONINTERNAL.CMAKE
C:\PROGRAM FILES (X86)\CRYTEK\CRYENGINE LAUNCHER\CRYTEK\CRYENGINE_5.6\TOOLS\CMAKE\WIN32\SHARE\CMAKE-3.14\MODULES\COMPILER\INTEL-DETERMINECOMPILER.CMAKE
C:\PROGRAM FILES (X86)\CRYTEK\CRYENGINE LAUNCHER\CRYTEK\CRYENGINE_5.6\TOOLS\CMAKE\WIN32\SHARE\CMAKE-3.14\MODULES\COMPILER\MIPSPRO-DETERMINECOMPILER.CMAKE
C:\PROGRAM FILES (X86)\CRYTEK\CRYENGINE LAUNCHER\CRYTEK\CRYENGINE_5.6\TOOLS\CMAKE\WIN32\SHARE\CMAKE-3.14\MODULES\COMPILER\MSVC-C-FEATURETESTS.CMAKE
C:\PROGRAM FILES (X86)\CRYTEK\CRYENGINE LAUNCHER\CRYTEK\CRYENGINE_5.6\TOOLS\CMAKE\WIN32\SHARE\CMAKE-3.14\MODULES\COMPILER\MSVC-C.CMAKE
C:\PROGRAM FILES (X86)\CRYTEK\CRYENGINE LAUNCHER\CRYTEK\CRYENGINE_5.6\TOOLS\CMAKE\WIN32\SHARE\CMAKE-3.14\MODULES\COMPILER\MSVC-CXX-FEATURETESTS.CMAKE
C:\PROGRAM FILES (X86)\CRYTEK\CRYENGINE LAUNCHER\CRYTEK\CRYENGINE_5.6\TOOLS\CMAKE\WIN32\SHARE\CMAKE-3.14\MODULES\COMPILER\MSVC-CXX.CMAKE
C:\PROGRAM FILES (X86)\CRYTEK\CRYENGINE LAUNCHER\CRYTEK\CRYENGINE_5.6\TOOLS\CMAKE\WIN32\SHARE\CMAKE-3.14\MODULES\COMPILER\MSVC-DETERMINECOMPILER.CMAKE
C:\PROGRAM FILES (X86)\CRYTEK\CRYENGINE LAUNCHER\CRYTEK\CRYENGINE_5.6\TOOLS\CMAKE\WIN32\SHARE\CMAKE-3.14\MODULES\COMPILER\NVIDIA-DETERMINECOMPILER.CMAKE
C:\PROGRAM FILES (X86)\CRYTEK\CRYENGINE LAUNCHER\CRYTEK\CRYENGINE_5.6\TOOLS\CMAKE\WIN32\SHARE\CMAKE-3.14\MODULES\COMPILER\OPENWATCOM-DETERMINECOMPILER.CMAKE
C:\PROGRAM FILES (X86)\CRYTEK\CRYENGINE LAUNCHER\CRYTEK\CRYENGINE_5.6\TOOLS\CMAKE\WIN32\SHARE\CMAKE-3.14\MODULES\COMPILER\PGI-DETERMINECOMPILER.CMAKE
C:\PROGRAM FILES (X86)\CRYTEK\CRYENGINE LAUNCHER\CRYTEK\CRYENGINE_5.6\TOOLS\CMAKE\WIN32\SHARE\CMAKE-3.14\MODULES\COMPILER\PATHSCALE-DETERMINECOMPILER.CMAKE
C:\PROGRAM FILES (X86)\CRYTEK\CRYENGINE LAUNCHER\CRYTEK\CRYENGINE_5.6\TOOLS\CMAKE\WIN32\SHARE\CMAKE-3.14\MODULES\COMPILER\SCO-DETERMINECOMPILER.CMAKE
C:\PROGRAM FILES (X86)\CRYTEK\CRYENGINE LAUNCHER\CRYTEK\CRYENGINE_5.6\TOOLS\CMAKE\WIN32\SHARE\CMAKE-3.14\MODULES\COMPILER\SDCC-C-DETERMINECOMPILER.CMAKE
C:\PROGRAM FILES (X86)\CRYTEK\CRYENGINE LAUNCHER\CRYTEK\CRYENGINE_5.6\TOOLS\CMAKE\WIN32\SHARE\CMAKE-3.14\MODULES\COMPILER\SUNPRO-C-DETERMINECOMPILER.CMAKE
C:\PROGRAM FILES (X86)\CRYTEK\CRYENGINE LAUNCHER\CRYTEK\CRYENGINE_5.6\TOOLS\CMAKE\WIN32\SHARE\CMAKE-3.14\MODULES\COMPILER\SUNPRO-CXX-DETERMINECOMPILER.CMAKE
C:\PROGRAM FILES (X86)\CRYTEK\CRYENGINE LAUNCHER\CRYTEK\CRYENGINE_5.6\TOOLS\CMAKE\WIN32\SHARE\CMAKE-3.14\MODULES\COMPILER\TI-DETERMINECOMPILER.CMAKE
C:\PROGRAM FILES (X86)\CRYTEK\CRYENGINE LAUNCHER\CRYTEK\CRYENGINE_5.6\TOOLS\CMAKE\WIN32\SHARE\CMAKE-3.14\MODULES\COMPILER\TINYCC-C-DETERMINECOMPILER.CMAKE
C:\PROGRAM FILES (X86)\CRYTEK\CRYENGINE LAUNCHER\CRYTEK\CRYENGINE_5.6\TOOLS\CMAKE\WIN32\SHARE\CMAKE-3.14\MODULES\COMPILER\VISUALAGE-C-DETERMINECOMPILER.CMAKE
C:\PROGRAM FILES (X86)\CRYTEK\CRYENGINE LAUNCHER\CRYTEK\CRYENGINE_5.6\TOOLS\CMAKE\WIN32\SHARE\CMAKE-3.14\MODULES\COMPILER\VISUALAGE-CXX-DETERMINECOMPILER.CMAKE
C:\PROGRAM FILES (X86)\CRYTEK\CRYENGINE LAUNCHER\CRYTEK\CRYENGINE_5.6\TOOLS\CMAKE\WIN32\SHARE\CMAKE-3.14\MODULES\COMPILER\WATCOM-DETERMINECOMPILER.CMAKE
C:\PROGRAM FILES (X86)\CRYTEK\CRYENGINE LAUNCHER\CRYTEK\CRYENGINE_5.6\TOOLS\CMAKE\WIN32\SHARE\CMAKE-3.14\MODULES\COMPILER\XL-C-DETERMINECOMPILER.CMAKE
C:\PROGRAM FILES (X86)\CRYTEK\CRYENGINE LAUNCHER\CRYTEK\CRYENGINE_5.6\TOOLS\CMAKE\WIN32\SHARE\CMAKE-3.14\MODULES\COMPILER\XL-CXX-DETERMINECOMPILER.CMAKE
C:\PROGRAM FILES (X86)\CRYTEK\CRYENGINE LAUNCHER\CRYTEK\CRYENGINE_5.6\TOOLS\CMAKE\WIN32\SHARE\CMAKE-3.14\MODULES\COMPILER\ZOS-C-DETERMINECOMPILER.CMAKE
C:\PROGRAM FILES (X86)\CRYTEK\CRYENGINE LAUNCHER\CRYTEK\CRYENGINE_5.6\TOOLS\CMAKE\WIN32\SHARE\CMAKE-3.14\MODULES\COMPILER\ZOS-CXX-DETERMINECOMPILER.CMAKE
C:\PROGRAM FILES (X86)\CRYTEK\CRYENGINE LAUNCHER\CRYTEK\CRYENGINE_5.6\TOOLS\CMAKE\WIN32\SHARE\CMAKE-3.14\MODULES\COMPILERID\VS-10.VCXPROJ.IN
C:\PROGRAM FILES (X86)\CRYTEK\CRYENGINE LAUNCHER\CRYTEK\CRYENGINE_5.6\TOOLS\CMAKE\WIN32\SHARE\CMAKE-3.14\MODULES\INTERNAL\FEATURETESTING.CMAKE
C:\PROGRAM FILES (X86)\CRYTEK\CRYENGINE LAUNCHER\CRYTEK\CRYENGINE_5.6\TOOLS\CMAKE\WIN32\SHARE\CMAKE-3.14\MODULES\PLATFORM\WINDOWS-DETERMINE-CXX.CMAKE
C:\PROGRAM FILES (X86)\CRYTEK\CRYENGINE LAUNCHER\CRYTEK\CRYENGINE_5.6\TOOLS\CMAKE\WIN32\SHARE\CMAKE-3.14\MODULES\PLATFORM\WINDOWS-MSVC-C.CMAKE
C:\PROGRAM FILES (X86)\CRYTEK\CRYENGINE LAUNCHER\CRYTEK\CRYENGINE_5.6\TOOLS\CMAKE\WIN32\SHARE\CMAKE-3.14\MODULES\PLATFORM\WINDOWS-MSVC-CXX.CMAKE
C:\PROGRAM FILES (X86)\CRYTEK\CRYENGINE LAUNCHER\CRYTEK\CRYENGINE_5.6\TOOLS\CMAKE\WIN32\SHARE\CMAKE-3.14\MODULES\PLATFORM\WINDOWS-MSVC.CMAKE
C:\PROGRAM FILES (X86)\CRYTEK\CRYENGINE LAUNCHER\CRYTEK\CRYENGINE_5.6\TOOLS\CMAKE\WIN32\SHARE\CMAKE-3.14\MODULES\PLATFORM\WINDOWS.CMAKE
C:\PROGRAM FILES (X86)\CRYTEK\CRYENGINE LAUNCHER\CRYTEK\CRYENGINE_5.6\TOOLS\CMAKE\WIN32\SHARE\CMAKE-3.14\MODULES\PLATFORM\WINDOWSPATHS.CMAKE
C:\PROGRAM FILES (X86)\CRYTEK\CRYENGINE LAUNCHER\CRYTEK\CRYENGINE_5.6\TOOLS\CMAKE\MODULES\BOOST.CMAKE
C:\PROGRAM FILES (X86)\CRYTEK\CRYENGINE LAUNCHER\CRYTEK\CRYENGINE_5.6\TOOLS\CMAKE\MODULES\WINPIXEVENTRUNTIME.CMAKE
C:\PROGRAM FILES (X86)\CRYTEK\CRYENGINE LAUNCHER\CRYTEK\CRYENGINE_5.6\TOOLS\CMAKE\TOOLCHAIN\WINDOWS\WINDOWSPC-MSVC.CMAKE
C:\USERS\JFELT\DOCUMENTS\CRYENGINE PROJECTS\HEALTHSYSTEM\SOLUTIONS\WIN64\CMAKEFILES\3.14.5\CMAKECCOMPILER.CMAKE
C:\USERS\JFELT\DOCUMENTS\CRYENGINE PROJECTS\HEALTHSYSTEM\SOLUTIONS\WIN64\CMAKEFILES\3.14.5\CMAKECXXCOMPILER.CMAKE
C:\USERS\JFELT\DOCUMENTS\CRYENGINE PROJECTS\HEALTHSYSTEM\SOLUTIONS\WIN64\CMAKEFILES\3.14.5\CMAKERCCOMPILER.CMAKE
C:\USERS\JFELT\DOCUMENTS\CRYENGINE PROJECTS\HEALTHSYSTEM\SOLUTIONS\WIN64\CMAKEFILES\3.14.5\CMAKESYSTEM.CMAKE
C:\USERS\JFELT\DOCUMENTS\CRYENGINE PROJECTS\HEALTHSYSTEM\SOLUTIONS\WIN64\CMAKEFILES\FEATURE_TESTS.C
C:\USERS\JFELT\DOCUMENTS\CRYENGINE PROJECTS\HEALTHSYSTEM\SOLUTIONS\WIN64\CMAKEFILES\FEATURE_TESTS.CXX
